STA 210 - Spring 2025 – Model evaluation
…
# set default theme and larger font size for ggplot2
ggplot2::theme_set(ggplot2::theme_bw())

Recap: Multiple linear regression

Data: Palmer penguins

The penguins data set contains data for penguins found on three islands in the Palmer Archipelago, Antarctica. Data were collected and made available by Dr. Kristen Gorman and the Palmer Station, Antarctica LTER, a member of the Long Term Ecological Research Network. These data can be found in the palmerpenguins R package.

# A tibble: 342 × 4
   body_mass_g flipper_length_mm bill_length_mm species
         <int>             <int>          <dbl> <fct>  
 1        3750               181           39.1 Adelie 
 2        3800               186           39.5 Adelie 
 3        3250               195           40.3 Adelie 
 4        3450               193           36.7 Adelie 
 5        3650               190           39.3 Adelie 
 6        3625               181           38.9 Adelie 
 7        4675               195           39.2 Adelie 
 8        3475               193           34.1 Adelie 
 9        4250               190           42   Adelie 
10        3300               186           37.8 Adelie 
# ℹ 332 more rows
…
Ranges between 0 (perfect predictor) and infinity (terrible predictor)

Same units as the response variable

The value of RMSE is more useful for comparing across models than evaluating a single model

Compute RMSE: Augmented data frame

Use the augment() function from the broom package to add columns for predicted values, residuals, and other observation-level model statistics

tip_aug <- augment(tip_fit)

# A tibble: 169 × 9
     Tip Party Age    .fitted .resid   .hat .sigma   .cooksd .std.resid
   <dbl> <dbl> <fct>    <dbl>  <dbl>  <dbl>  <dbl>     <dbl>      <dbl>
 1  2.99     1 Yadult    1.67  1.32  0.0247   2.04 0.00274        0.657
 2  2        1 Yadult    1.67  0.333 0.0247   2.05 0.000173       0.165
 3  5        1 SenCit    3.05  1.95  0.0371   2.04 0.00911        0.972
 4  4        3 Middle    6.35 -2.35  0.0111   2.04 0.00376       -1.16 
 5 10.3      2 SenCit    4.89  5.45  0.0301   2.00 0.0571         2.71 
 6  4.85     2 Middle    4.51  0.337 0.0126   2.05 0.0000881      0.166
 7  5        4 Yadult    7.18 -2.18  0.0471   2.04 0.0148        -1.09 
 8  4        3 Middle    6.35 -2.35  0.0111   2.04 0.00376       -1.16 
 9  5        2 Middle    4.51  0.487 0.0126   2.05 0.000184       0.240
10  1.58     1 SenCit    3.05 -1.47  0.0371   2.04 0.00524       -0.737
# ℹ 159 more rows
…
