Model comparison – STA 210 - Spring 2025
…
# set default theme and larger font size for ggplot2
ggplot2::theme_set(ggplot2::theme_bw(base_size = 20))

Introduction

Data: Restaurant tips

Which variables help us predict the amount customers tip at a restaurant? To answer this question, we will use data collected in 2011 by a student at St. Olaf who worked at a local restaurant.

# A tibble: 169 × 4
     Tip Party Meal   Age   
   <dbl> <dbl> <chr>  <chr> 
 1  2.99     1 Dinner Yadult
 2  2        1 Dinner Yadult
 3  5        1 Dinner SenCit
 4  4        3 Dinner Middle
 5 10.3      2 Dinner SenCit
 6  4.85     2 Dinner Middle
 7  5        4 Dinner Yadult
 8  4        3 Dinner Middle
 9  5        2 Dinner Middle
10  1.58     1 Dinner SenCit
# ℹ 159 more rows
…
