Logistic Regression: Model comparison – STA 210 - Spring 2025
…
1: High risk of having heart disease in next 10 years

0: Not high risk of having heart disease in next 10 years

age: Age at exam time (in years)

education: 1 = Some High School, 2 = High School or GED, 3 = Some College or Vocational School, 4 = College

currentSmoker: 0 = nonsmoker, 1 = smoker

totChol: Total cholesterol (in mg/dL)

Data

# A tibble: 4,086 × 6
     age education TenYearCHD totChol currentSmoker high_risk
   <dbl> <fct>          <dbl>   <dbl> <fct>         <fct>    
 1    39 4                  0     195 0             0        
 2    46 2                  0     250 0             0        
 3    48 1                  0     245 1             0        
 4    61 3                  1     225 1             1        
 5    46 3                  0     285 1             0        
 6    43 2                  0     228 0             0        
 7    63 1                  1     205 0             1        
 8    45 2                  0     313 1             0        
 9    52 1                  0     260 0             0        
10    43 1                  0     225 1             0        
# ℹ 4,076 more rows
…
